Left join two data frames using addr matching — addr_left_join • addr
…
    A data frame with left-join semantics. Duplicate rows in y with
the exact same matched addr are all returned. Partial ZIP-only or
street-only matches do not expand to multiple candidate rows in y.

    Examples

the_addr <- nad("Hamilton", "OH", refresh = "no")
my_addr <- tibble::tibble(
  addr = as_addr(voter_addresses()[1:100]),
  id = 1:100
)
d <- addr_left_join(my_addr, the_addr, by = c("addr", "nad_addr"))

d
#> # A tibble: 111 × 9
#>    addr            id nad_addr.y subaddress uuid  date_update s2    address_type
#>    <addr>       <int> <addr>     <chr>      <chr> <date>      <s2_> <chr>       
#>  1 3359 QUEEN …     1 3359 QUEE… NA         {E3A… 2025-03-30  -6.7… Unknown     
#>  2 1040 KREIS …     2 1040 KREI… NA         {D05… 2025-03-30  -6.7… Unknown     
#>  3 9960 DALY R…     3 9960 DALY… NA         {109… 2025-03-30  -6.1… Unknown     
#>  4 413 VOLKERT…     4 413 VOLKE… NA         {1BB… 2025-03-30  -6.7… Unknown     
#>  5 8519 LINDER…     5 8519 LIND… NA         {F78… 2025-03-30  -6.6… Unknown     
#>  6 6361 BEECHM…     6 6361 BEEC… NA         {6D4… 2025-03-30  -6.6… Unknown     
#>  7 10466 ADVEN…     7 10466 ADV… NA         {1D1… 2025-03-30  -6.1… Unknown     
#>  8 3156 LOOKOU…     8 3156 LOOK… NA         {AE8… 2025-03-30  -6.6… Unknown     
#>  9 310 WYOMING…     9 310 WYOMI… NA         {331… 2025-03-30  -6.1… Unknown     
#> 10 118 SPRINGF…    10 118 SPRIN… NA         {F3E… 2025-03-30  -6.1… Unknown     
#> # ℹ 101 more rows
#> # ℹ 1 more variable: parcel_id <chr>
…
