…
#> matching by zipcode ■■■■■                             14% |  ETA:  1m
#> matching by zipcode ■■■■■■■                           18% |  ETA:  1m
#> matching by zipcode ■■■■■■■■                          22% |  ETA:  1m
#> matching by zipcode ■■■■■■■■■■                        31% |  ETA: 46s
#> matching by zipcode ■■■■■■■■■■■                       33% |  ETA: 46s
#> matching by zipcode ■■■■■■■■■■■■■                     41% |  ETA: 38s
#> matching by zipcode ■■■■■■■■■■■■■■■                   47% |  ETA: 33s
#> matching by zipcode ■■■■■■■■■■■■■■■■■                 53% |  ETA: 28s
#> matching by zipcode ■■■■■■■■■■■■■■■■■■■               61% |  ETA: 22s
#> matching by zipcode ■■■■■■■■■■■■■■■■■■■■■             67% |  ETA: 18s
#> matching by zipcode ■■■■■■■■■■■■■■■■■■■■■■■           73% |  ETA: 15s
#> matching by zipcode ■■■■■■■■■■■■■■■■■■■■■■■■■■■       88% |  ETA:  6s
#> Warning: Multi-matches detected for 23 addr in x;
#> More than one row of y will be returned once for each matching row in x
#> # A tibble: 1,796 × 10
#>    address             addr  id    nad_addr.y subaddress uuid  date_update s2   
#>    <chr>               <add> <chr> <addr>     <chr>      <chr> <date>      <s2_>
#>  1 3359 QUEEN CITY AV… 3359… id_0… 3359 QUEE… NA         {E3A… 2025-03-30  -6.7…
#>  2 5179 RIVERWATCH DR… 5179… id_0… 5179 RIVE… NA         {CDE… 2025-03-30  -6.7…
#>  3 4724 GLENWAY AVE C… 4724… id_0… 4724 GLEN… NA         {EB2… 2025-03-30  -6.7…
#>  4 2375 FAIRGREEN DR … 2375… id_0… 2375 FAIR… NA         {204… 2025-03-30  -6.7…
#>  5 259 CALVERTON LN C… 259 … id_0…            NA         NA    NA              …
#>  6 1034 FASHION AVE C… 1034… id_0… 1034 FASH… NA         {DDD… 2025-03-30  -6.7…
#>  7 2720 QUEEN CITY AV… 2720… id_0… 2720 QUEE… NA         {D94… 2025-03-30  -6.7…
#>  8 4450 CLOVERHILL TE… 4450… id_0… 4450 CLOV… NA         {55F… 2025-03-30  -6.7…
#>  9 175 ANDERSON FERRY… 175 … id_0… 175 ANDER… NA         {715… 2025-03-30  -6.7…
#> 10 5270 WILLNET DR CI… 5270… id_0… 5270 WILL… NA         {A79… 2025-03-30  -6.7…
#> # ℹ 1,786 more rows
#> # ℹ 2 more variables: address_type <chr>, parcel_id <chr>
```
