Geocode addr vectors with Census TIGER address features — geocode • addr
…
If the mirai package is installed and mirai daemons have already been
configured by the caller, geocode() uses them for ZIP-code-level
parallel processing. Otherwise it falls back to sequential processing.

geocode() and geocode_zip() both download and install tiger address
features by county (?taf_install) as needed based on the input addr ZIP
codes (and possibly ZIP code variants). TAF install checks run before
reading TAF ZIP files so parallel geocoding workers do not try to download
county files at the same time.

    Examples

x <- as_addr(voter_addresses()[1:25])
taf_needed_counties(x)
#> # A tibble: 335 × 7
#>    county_fips ZIP   zip3  zip2  n_ranges source_zip source_zip_variant
#>    <chr>       <chr> <chr> <chr>    <int> <chr>      <chr>             
#>  1 39061       45205 452   05         855 45205      exact             
#>  2 39061       45204 452   04         610 45205      minus1            
#>  3 39061       45206 452   06         940 45205      plus1             
#>  4 39061       45208 452   08        1217 45205      sub5              
#>  5 39061       45207 452   07         377 45205      sub5              
#>  6 39061       45204 452   04         610 45205      sub5              
#>  7 39061       45206 452   06         940 45205      sub5              
#>  8 39061       45202 452   02        2088 45205      sub5              
#>  9 39061       45203 452   03         283 45205      sub5              
#> 10 39061       45209 452   09         595 45205      sub5              
#> # ℹ 325 more rows
…
