Example National Address Database addresses — nad_example_data • addr
…
    Arguments

match_prepared
logical; return the example data preprocessed with
addr_match_prepare()?

    Value

    If match_prepared = FALSE, a tibble with 5,000 rows and 7
columns. If match_prepared = TRUE, an addr_match_index.

    Examples

nad_example_data()
#> # A tibble: 5,000 × 7
#>    nad_addr            subaddress uuid  date_update s2    address_type parcel_id
#>    <addr>              <chr>      <chr> <date>      <s2_> <chr>        <chr>    
#>  1 3359 QUEEN CITY Av… NA         {E3A… 2025-03-30  -6.7… Unknown      NA       
#>  2 1040 KREIS Ln CINC… NA         {D05… 2025-03-30  -6.7… Unknown      NA       
#>  3 9960 DALY Rd CINCI… NA         {109… 2025-03-30  -6.1… Unknown      NA       
#>  4 413 VOLKERT Pl CIN… NA         {1BB… 2025-03-30  -6.7… Unknown      NA       
#>  5 8519 LINDERWOOD Ln… NA         {F78… 2025-03-30  -6.6… Unknown      NA       
#>  6 6361 BEECHMONT Ave… NA         {6D4… 2025-03-30  -6.6… Unknown      NA       
#>  7 10466 ADVENTURE Ln… NA         {1D1… 2025-03-30  -6.1… Unknown      NA       
#>  8 3156 LOOKOUT Cir C… NA         {AE8… 2025-03-30  -6.6… Unknown      NA       
#>  9 310 WYOMING Ave CI… NA         {331… 2025-03-30  -6.1… Unknown      NA       
#> 10 118 SPRINGFIELD Pi… NA         {F3E… 2025-03-30  -6.1… Unknown      NA       
#> # ℹ 4,990 more rows
…
