Read taf() data for ZIP codes across all installed counties — taf_zip • addr
…
    Value

    a tibble with LINEARID, FULLNAME, side, ZIP,
FROMHN, TOHN, PARITY, OFFSET, s2_geography, addr_street,
county_fips, and street_tag_parsed columns

    Examples

Sys.setenv("R_USER_DATA_DIR" = tempfile())
taf_install("39061", "2025")
taf_zip(c("45249", "45230", "45220"))
#> # A tibble: 3,734 × 12
#>    LINEARID      FULLNAME     side  ZIP   FROMHN  TOHN PARITY OFFSET county_fips
#>    <chr>         <chr>        <chr> <chr>  <int> <int> <chr>  <chr>  <chr>      
#>  1 110480468451  Riddle Rd    L     45220    703   723 O      N      39061      
#>  2 110480463741  W Cliff Ln   L     45220    401   499 O      N      39061      
#>  3 1106092751506 N Cliff Ter  L     45220   3945  3999 O      N      39061      
#>  4 110480463738  N Cliff Ln   L     45220   3901  3943 O      N      39061      
#>  5 110480478352  Lafayette A… L     45220    403   599 O      N      39061      
#>  6 110480465708  Amazon Ave   L     45220    359   499 O      N      39061      
#>  7 110480478643  Middleton A… L     45220   3901  3999 O      N      39061      
#>  8 110480478643  Middleton A… L     45220   3801  3899 O      N      39061      
#>  9 110480478352  Lafayette A… L     45220    227   399 O      N      39061      
#> 10 110480475120  McAlpin Ave  L     45220    401   533 O      N      39061      
#> # ℹ 3,724 more rows
#> # ℹ 3 more variables: street_tag_parsed <lgl>, s2_geography <s2_geography>,
#> #   addr_street <addr_str>
…
