addr • addr
…
addr_match_geocode(x = voter_addresses()[1040:1100], 
                   ref_addr = cagis_addr()$cagis_addr,
                   ref_s2 = cagis_s2,
                   county = "39061",
                   year = "2022")
#> matching addresses in 9/31 ZIP codes [2s elapsed]
#> matching addresses in 18/31 ZIP codes [4.8s elapsed]
#> matching addresses in 29/31 ZIP codes [8s elapsed]
#> matching addresses in 31/31 ZIP codes [8.5s elapsed]
#> 
#> # A tibble: 61 × 3
#>                                          addr s2               match_method
#>                                        <addr> <s2cell>         <fct>       
#>  1     9822 Tollgate Lane Cincinnati OH 45242 8840538796e0aca3 ref_addr    
#>  2  3840 Applegate Avenue Cincinnati OH 45211 8841ca635832a0fd ref_addr    
#>  3     2819 Hocking Drive Cincinnati OH 45233 8841cb8ea9f6c543 ref_addr    
#>  4  8311 Wetherfield Lane Cincinnati OH 45236 8840536907b7ccc5 ref_addr    
#>  5          529 13th E St Cincinnati OH 45202 NA               none        
#>  6     996 Wittshire Lane Cincinnati OH 45255 8841a91704d8f5a5 tiger_range 
#>  7 5110 Herringbone Drive Cincinnati OH 45227 8841ad10999e2617 ref_addr    
#>  8    7081 Jeannie Avenue Cincinnati OH 45230 8841aed03759a5c5 ref_addr    
#>  9 6924 Miami Bluff Drive Cincinnati OH 45227 8841ac605740b499 ref_addr    
#> 10    433 Mcdowell Street Cincinnati OH 45226 8841adf7a4bb9c83 ref_addr    
#> # ℹ 51 more rows
…
